ALL0001/A0001CH2.CSV

Memory Length,4000,
Trigger Level,2.400E-02,
Source,CH2,
Vertical Units,V,
Vertical Scale,1.000E-01,
Vertical Position,-2.000E-01,
Horizontal Units,s,
Horizontal Scale,5.000E-04,
Horizontal Position,0.000E+00,
Horizontal Mode,Main,
Sampling Period,2.000E-06,
Firmware, V1.14,
Waveform Data,
21,
21,
-33,
-30,
-32,
-30,
-32,
-31,
-31,
-31,
-31,
-31,
-29,
-29,
-28,
-30,
-31,
-29,
-29,
-28,
-27,
-28,
-26,
-26,
-28,
-27,
-27,
-24,
-26,
-24,
-22,
-23,
-24,
-22,
-22,
-24,
-22,
-25,
-20,
-21,
-17,
-20,
-17,
-18,
-18,
-16,
-16,
-16,
-16,
-14,
-15,
-12,
-15,
-15,
-14,
-12,
-14,
-12,
-10,
-10,
-9,
-10,
-11,
-9,
-10,
-8,
-6,
-9,
-5,
-5,
-4,
-5,
-4,
-4,
-5,
-3,
-2,
-2,
-2,
1,
0,
6,
1,
1,
1,
1,
2,
4,
0,
4,
4,
4,
6,
4,
7,
5,
8,
6,
8,
8,
9,
9,
10,
10,
10,
12,
14,
15,
14,
16,
17,
19,
15,
16,
14,
17,
16,
17,
17,
19,
19,
19,
20,
19,
21,
20,
21,
24,
24,
22,
25,
25,
24,
26,
24,
26,
27,
26,
27,
30,
25,
29,
29,
29,
30,
31,
32,
30,
34,
29,
32,
30,
32,
30,
33,
31,
35,
35,
35,
34,
34,
35,
35,
36,
38,
36,
36,
37,
36,
35,
38,
37,
37,
38,
39,
37,
36,
38,
35,
39,
39,
39,
39,
41,
39,
46,
39,
39,
39,
39,
41,
40,
42,
40,
41,
40,
41,
40,
40,
39,
40,
40,
42,
40,
39,
41,
39,
42,
46,
42,
42,
41,
41,
39,
42,
36,
41,
41,
41,
40,
42,
40,
40,
39,
38,
39,
39,
42,
36,
43,
39,
42,
39,
39,
38,
38,
37,
37,
37,
35,
37,
35,
36,
34,
36,
36,
36,
36,
32,
36,
33,
34,
35,
34,
32,
34,
32,
32,
32,
26,
28,
30,
33,
29,
31,
28,
30,
26,
28,
28,
27,
28,
26,
28,
24,
24,
24,
25,
24,
24,
24,
22,
23,
18,
22,
19,
21,
17,
20,
22,
19,
18,
18,
18,
16,
17,
16,
16,
16,
15,
14,
14,
14,
13,
12,
11,
12,
10,
12,
11,
10,
9,
7,
7,
6,
9,
6,
8,
3,
5,
4,
4,
1,
3,
0,
1,
2,
-2,
-1,
-2,
-1,
-2,
0,
0,
-1,
-5,
-4,
-4,
-6,
-5,
-11,
-5,
-7,
-6,
-8,
-7,
-9,
-7,
-9,
-11,
-11,
-12,
-10,
-14,
-11,
-14,
-13,
-15,
-11,
-16,
-15,
-18,
-17,
-18,
-19,
-18,
-21,
-18,
-20,
-19,
-18,
-19,
-20,
-20,
-22,
-24,
-23,
-27,
-23,
-23,
-23,
-25,
-23,
-25,
-24,
-26,
-27,
-24,
-26,
-25,
-28,
-24,
-30,
-29,
-28,
-28,
-30,
-29,
-33,
-30,
-31,
-31,
-31,
-34,
-31,
-35,
-32,
-32,
-31,
-33,
-35,
-34,
-33,
-36,
-35,
-35,
-36,
-33,
-36,
-33,
-34,
-34,
-36,
-36,
-36,
-36,
-36,
-36,
-37,
-39,
-36,
-38,
-38,
-37,
-35,
-40,
-37,
-37,
-38,
-37,
-38,
-38,
-40,
-37,
-39,
-37,
-38,
-35,
-38,
-36,
-38,
-37,
-38,
-37,
-35,
-34,
-34,
-38,
-33,
-38,
-36,
-37,
-37,
-37,
-37,
-40,
-36,
-36,
-37,
-36,
-36,
-36,
-36,
-35,
-38,
-35,
-36,
-34,
-35,
-34,
-34,
-35,
-32,
-33,
-32,
-35,
-31,
-32,
-31,
-33,
-32,
-33,
-32,
-32,
-30,
-32,
-30,
-30,
-29,
-28,
-30,
-28,
-30,
-27,
-30,
-26,
-27,
-26,
-25,
-25,
-26,
-27,
-26,
-24,
-23,
-24,
-21,
-26,
-21,
-22,
-22,
-22,
-20,
-22,
-21,
-22,
-20,
-19,
-19,
-18,
-19,
-19,
-18,
-16,
-13,
-14,
-15,
-15,
-13,
-14,
-12,
-17,
-11,
-12,
-10,
-10,
-7,
-10,
-7,
-8,
-8,
-6,
-7,
-5,
-7,
-3,
-6,
-3,
-4,
-2,
-2,
-2,
-2,
0,
-1,
-1,
0,
-2,
1,
-1,
2,
5,
4,
4,
5,
5,
3,
5,
7,
7,
6,
9,
8,
8,
10,
6,
11,
12,
13,
12,
14,
12,
15,
13,
15,
14,
15,
17,
18,
18,
16,
18,
16,
19,
19,
18,
24,
19,
20,
20,
21,
22,
23,
20,
22,
24,
23,
24,
24,
24,
25,
27,
27,
28,
27,
27,
28,
28,
29,
24,
30,
30,
32,
32,
33,
29,
34,
33,
33,
34,
33,
35,
34,
36,
34,
35,
35,
36,
36,
36,
38,
36,
37,
35,
37,
36,
37,
36,
38,
40,
38,
38,
37,
39,
37,
40,
38,
40,
38,
40,
40,
40,
40,
37,
41,
40,
41,
40,
41,
40,
41,
40,
41,
41,
40,
42,
41,
42,
41,
43,
39,
41,
39,
40,
40,
40,
40,
41,
40,
38,
41,
38,
41,
41,
40,
39,
40,
39,
40,
46,
40,
40,
39,
40,
39,
38,
39,
36,
37,
38,
38,
38,
40,
37,
38,
38,
37,
35,
35,
37,
35,
37,
35,
36,
34,
34,
33,
34,
32,
32,
33,
32,
31,
30,
31,
30,
31,
32,
30,
32,
30,
28,
28,
27,
24,
27,
27,
27,
26,
28,
24,
27,
23,
24,
23,
23,
24,
20,
24,
20,
20,
20,
21,
16,
20,
17,
18,
17,
16,
17,
14,
15,
14,
15,
15,
16,
13,
13,
12,
11,
10,
7,
11,
10,
11,
8,
9,
8,
8,
8,
7,
7,
6,
6,
4,
6,
2,
2,
2,
2,
0,
1,
-1,
0,
-3,
-2,
-2,
-4,
-3,
-6,
-4,
-4,
-4,
-4,
-4,
-6,
-7,
-7,
-8,
-7,
-8,
-8,
-10,
-8,
-12,
-8,
-12,
-14,
-12,
-13,
-14,
-15,
-15,
-17,
-14,
-16,
-17,
-17,
-16,
-20,
-17,
-18,
-19,
-18,
-20,
-20,
-22,
-20,
-25,
-22,
-24,
-20,
-24,
-23,
-24,
-24,
-29,
-26,
-26,
-27,
-25,
-27,
-25,
-27,
-28,
-28,
-27,
-30,
-28,
-30,
-28,
-29,
-31,
-30,
-31,
-32,
-32,
-32,
-33,
-34,
-32,
-32,
-32,
-32,
-34,
-34,
-34,
-34,
-33,
-34,
-31,
-35,
-32,
-36,
-36,
-36,
-36,
-36,
-36,
-38,
-36,
-36,
-39,
-36,
-37,
-37,
-37,
-38,
-41,
-37,
-38,
-37,
-37,
-36,
-38,
-40,
-38,
-38,
-37,
-38,
-36,
-38,
-34,
-39,
-37,
-37,
-36,
-38,
-37,
-37,
-38,
-35,
-39,
-38,
-40,
-38,
-38,
-39,
-36,
-37,
-38,
-38,
-36,
-38,
-36,
-38,
-36,
-37,
-35,
-35,
-35,
-35,
-36,
-34,
-38,
-34,
-34,
-34,
-34,
-32,
-34,
-32,
-32,
-33,
-31,
-31,
-28,
-30,
-30,
-32,
-30,
-32,
-30,
-30,
-30,
-28,
-28,
-27,
-30,
-28,
-29,
-26,
-26,
-25,
-27,
-25,
-26,
-26,
-24,
-22,
-23,
-23,
-22,
-22,
-23,
-21,
-24,
-21,
-20,
-22,
-18,
-18,
-19,
-17,
-16,
-17,
-14,
-16,
-14,
-15,
-12,
-14,
-13,
-13,
-12,
-11,
-12,
-12,
-12,
-8,
-7,
-10,
-12,
-9,
-10,
-9,
-6,
-5,
-5,
-11,
-5,
-7,
-4,
-3,
-4,
-2,
-1,
-2,
0,
-1,
-4,
1,
1,
3,
2,
4,
3,
4,
5,
4,
4,
6,
9,
7,
11,
8,
8,
7,
7,
11,
10,
12,
10,
12,
11,
13,
10,
16,
12,
13,
16,
15,
16,
14,
18,
14,
18,
20,
19,
19,
21,
19,
20,
20,
16,
20,
22,
24,
23,
24,
24,
24,
27,
25,
25,
26,
28,
26,
32,
28,
28,
27,
29,
30,
28,
32,
29,
30,
29,
30,
30,
31,
29,
32,
35,
34,
34,
33,
34,
30,
35,
34,
34,
36,
38,
36,
35,
37,
30,
39,
36,
38,
39,
38,
38,
40,
39,
39,
39,
40,
44,
39,
44,
40,
39,
40,
39,
40,
40,
40,
38,
40,
40,
41,
35,
41,
34,
40,
40,
41,
41,
41,
38,
40,
41,
39,
40,
42,
39,
40,
41,
40,
37,
40,
40,
41,
41,
45,
41,
49,
41,
40,
39,
40,
40,
41,
41,
38,
39,
38,
38,
36,
37,
34,
36,
38,
38,
35,
35,
37,
33,
36,
33,
35,
36,
37,
36,
35,
37,
32,
34,
33,
33,
34,
38,
32,
38,
33,
32,
31,
31,
32,
31,
30,
28,
30,
30,
27,
25,
27,
22,
26,
28,
26,
26,
24,
25,
21,
24,
20,
21,
23,
24,
22,
23,
21,
17,
19,
20,
18,
19,
22,
18,
23,
17,
16,
16,
14,
15,
13,
10,
13,
15,
13,
12,
7,
9,
6,
9,
8,
7,
9,
9,
7,
6,
6,
0,
4,
6,
4,
4,
5,
2,
6,
3,
1,
-2,
0,
2,
0,
5,
-2,
-2,
-2,
-2,
-7,
-5,
-9,
-6,
-4,
-7,
-6,
-9,
-8,
-11,
-9,
-10,
-10,
-11,
-8,
-11,
-11,
-8,
-18,
-14,
-18,
-12,
-14,
-15,
-15,
-14,
-16,
-17,
-19,
-17,
-13,
-19,
-13,
-18,
-20,
-20,
-21,
-20,
-22,
-22,
-18,
-21,
-23,
-24,
-28,
-25,
-29,
-26,
-24,
-26,
-26,
-30,
-26,
-31,
-29,
-28,
-28,
-28,
-28,
-29,
-31,
-30,
-34,
-31,
-31,
-29,
-32,
-32,
-31,
-37,
-34,
-33,
-33,
-32,
-32,
-33,
-34,
-34,
-34,
-34,
-34,
-32,
-35,
-28,
-34,
-35,
-33,
-36,
-34,
-37,
-32,
-36,
-38,
-36,
-36,
-38,
-38,
-37,
-39,
-36,
-37,
-38,
-39,
-38,
-42,
-37,
-36,
-38,
-37,
-40,
-38,
-40,
-38,
-36,
-38,
-36,
-36,
-36,
-39,
-37,
-39,
-38,
-37,
-36,
-38,
-36,
-36,
-41,
-36,
-37,
-38,
-36,
-35,
-36,
-32,
-35,
-36,
-37,
-33,
-32,
-35,
-29,
-34,
-35,
-34,
-34,
-32,
-35,
-29,
-33,
-34,
-32,
-33,
-34,
-32,
-33,
-34,
-31,
-30,
-31,
-33,
-28,
-34,
-30,
-28,
-28,
-28,
-28,
-29,
-32,
-27,
-25,
-27,
-25,
-24,
-24,
-26,
-24,
-28,
-26,
-24,
-21,
-22,
-21,
-18,
-24,
-21,
-20,
-20,
-19,
-15,
-18,
-16,
-16,
-16,
-17,
-16,
-13,
-16,
-8,
-13,
-14,
-12,
-14,
-13,
-14,
-9,
-12,
-11,
-10,
-9,
-13,
-10,
-11,
-9,
-7,
-6,
-7,
-8,
-4,
-7,
-6,
-3,
-6,
-4,
-2,
-1,
-4,
-1,
-5,
0,
-3,
4,
3,
2,
3,
-3,
2,
4,
5,
6,
8,
7,
7,
8,
9,
8,
9,
12,
10,
16,
12,
11,
14,
13,
14,
14,
19,
15,
15,
16,
16,
13,
16,
14,
16,
19,
18,
18,
17,
21,
16,
20,
22,
21,
22,
20,
23,
22,
25,
20,
23,
26,
27,
27,
26,
28,
22,
26,
28,
28,
28,
31,
32,
32,
33,
29,
30,
31,
31,
32,
37,
33,
32,
33,
34,
34,
33,
36,
33,
35,
36,
36,
33,
34,
33,
35,
37,
37,
39,
36,
38,
30,
37,
36,
37,
38,
39,
39,
39,
40,
34,
39,
40,
40,
39,
43,
41,
40,
41,
40,
40,
39,
44,
40,
45,
43,
41,
40,
39,
40,
41,
44,
40,
42,
43,
41,
38,
41,
36,
39,
41,
40,
40,
40,
40,
36,
39,
44,
39,
40,
41,
40,
38,
40,
34,
38,
39,
40,
42,
41,
40,
39,
39,
38,
37,
38,
40,
36,
41,
37,
34,
40,
35,
34,
33,
35,
34,
34,
35,
40,
28,
32,
27,
31,
34,
31,
32,
29,
32,
27,
31,
26,
26,
26,
30,
29,
29,
31,
20,
25,
26,
26,
24,
28,
26,
22,
25,
22,
23,
22,
27,
22,
25,
21,
20,
19,
23,
22,
19,
23,
20,
10,
17,
17,
16,
14,
16,
15,
13,
15,
13,
11,
12,
12,
10,
12,
12,
10,
7,
9,
5,
6,
9,
6,
8,
4,
6,
0,
2,
4,
4,
2,
1,
2,
-4,
0,
1,
-1,
-2,
0,
-2,
-4,
0,
0,
-8,
-5,
-4,
-5,
-8,
-5,
-12,
-9,
-8,
-10,
-9,
-8,
-8,
-14,
-11,
-11,
-14,
-13,
-9,
-10,
-12,
-4,
-16,
-16,
-17,
-12,
-16,
-11,
-16,
-16,
-18,
-18,
-16,
-21,
-15,
-20,
-20,
-20,
-22,
-22,
-23,
-22,
-29,
-23,
-19,
-24,
-28,
-26,
-29,
-28,
-25,
-26,
-27,
-29,
-28,
-32,
-30,
-27,
-30,
-28,
-30,
-30,
-37,
-33,
-31,
-32,
-31,
-33,
-31,
-35,
-32,
-36,
-37,
-33,
-34,
-33,
-34,
-33,
-39,
-33,
-35,
-36,
-36,
-38,
-34,
-39,
-36,
-38,
-37,
-39,
-34,
-36,
-34,
-36,
-37,
-38,
-41,
-35,
-38,
-32,
-36,
-38,
-36,
-37,
-35,
-35,
-32,
-37,
-37,
-36,
-39,
-38,
-39,
-35,
-37,
-36,
-36,
-38,
-37,
-35,
-40,
-40,
-36,
-37,
-37,
-43,
-36,
-42,
-38,
-35,
-37,
-36,
-37,
-36,
-41,
-36,
-36,
-37,
-35,
-34,
-34,
-36,
-37,
-36,
-34,
-35,
-35,
-33,
-34,
-33,
-35,
-32,
-32,
-33,
-31,
-29,
-30,
-29,
-30,
-31,
-31,
-30,
-28,
-30,
-21,
-26,
-29,
-30,
-28,
-27,
-28,
-23,
-26,
-26,
-25,
-25,
-27,
-25,
-22,
-25,
-23,
-23,
-23,
-25,
-22,
-25,
-24,
-18,
-19,
-20,
-17,
-18,
-23,
-18,
-20,
-18,
-16,
-15,
-15,
-16,
-14,
-15,
-14,
-12,
-11,
-12,
-11,
-10,
-13,
-11,
-10,
-10,
-9,
-5,
-6,
-4,
-4,
-6,
-7,
-5,
-2,
-4,
0,
-2,
-3,
-1,
-1,
0,
-1,
3,
0,
0,
2,
2,
1,
1,
0,
2,
6,
5,
5,
6,
6,
4,
6,
8,
4,
10,
10,
11,
10,
16,
12,
10,
11,
13,
14,
14,
15,
12,
16,
12,
15,
18,
21,
17,
23,
20,
19,
24,
20,
22,
21,
28,
21,
21,
24,
23,
23,
24,
22,
23,
26,
25,
26,
23,
28,
23,
26,
28,
29,
28,
28,
26,
29,
30,
28,
29,
31,
31,
31,
34,
35,
31,
34,
33,
32,
34,
37,
35,
38,
36,
36,
36,
37,
39,
36,
41,
37,
37,
38,
35,
36,
37,
36,
36,
40,
40,
40,
39,
39,
35,
37,
40,
39,
41,
40,
40,
34,
41,
41,
38,
41,
41,
39,
38,
41,
36,
40,
40,
41,
42,
42,
42,
38,
41,
42,
44,
40,
44,
41,
41,
42,
41,
41,
40,
44,
43,
45,
44,
40,
39,
39,
40,
39,
45,
40,
37,
40,
38,
40,
37,
42,
38,
36,
38,
36,
36,
36,
37,
31,
38,
36,
36,
34,
36,
30,
32,
37,
36,
34,
33,
35,
29,
32,
32,
30,
31,
31,
31,
27,
30,
27,
27,
29,
28,
28,
28,
28,
28,
27,
25,
25,
24,
26,
24,
21,
24,
23,
21,
22,
24,
22,
21,
22,
20,
22,
19,
21,
19,
25,
25,
16,
18,
15,
18,
14,
20,
15,
12,
15,
13,
12,
11,
16,
10,
10,
10,
8,
6,
7,
8,
5,
7,
8,
4,
3,
5,
0,
1,
4,
2,
1,
2,
2,
-3,
0,
1,
-2,
-1,
1,
-2,
-4,
-4,
-6,
-7,
-5,
-5,
-3,
-6,
-5,
-12,
-8,
-9,
-9,
-9,
-9,
-8,
-14,
-9,
-12,
-12,
-13,
1,
-14,
-8,
-12,
-15,
-16,
-17,
-14,
-20,
-12,
-16,
-18,
-17,
-19,
-20,
-22,
-18,
-22,
-21,
-21,
-23,
-23,
-23,
-26,
-24,
-26,
-24,
-24,
-27,
-26,
-30,
-30,
-27,
-26,
-28,
-28,
-27,
-31,
-27,
-32,
-32,
-29,
-36,
-30,
-30,
-30,
-36,
-33,
-34,
-32,
-30,
-31,
-30,
-36,
-33,
-34,
-33,
-34,
-31,
-34,
-31,
-32,
-33,
-32,
-36,
-34,
-38,
-30,
-36,
-36,
-36,
-40,
-37,
-36,
-36,
-38,
-35,
-36,
-38,
-40,
-38,
-42,
-39,
-36,
-37,
-37,
-37,
-36,
-44,
-38,
-38,
-40,
-39,
-36,
-41,
-38,
-36,
-41,
-39,
-38,
-38,
-37,
-35,
-36,
-41,
-36,
-37,
-41,
-38,
-33,
-36,
-30,
-33,
-36,
-35,
-36,
-35,
-36,
-31,
-34,
-35,
-34,
-34,
-35,
-36,
-36,
-37,
-33,
-33,
-32,
-36,
-33,
-37,
-35,
-34,
-32,
-31,
-30,
-29,
-32,
-30,
-34,
-32,
-29,
-29,
-30,
-28,
-27,
-30,
-27,
-28,
-29,
-28,
-24,
-27,
-20,
-23,
-22,
-24,
-25,
-23,
-24,
-18,
-22,
-21,
-22,
-20,
-23,
-20,
-24,
-22,
-17,
-20,
-18,
-19,
-16,
-21,
-16,
-18,
-17,
-14,
-13,
-14,
-14,
-12,
-16,
-13,
-12,
-12,
-12,
-6,
-9,
-7,
-9,
-8,
-9,
-8,
-8,
-7,
-3,
-4,
-5,
-4,
-3,
-7,
-3,
-6,
-3,
1,
1,
0,
1,
0,
-1,
2,
-2,
3,
4,
7,
5,
4,
6,
2,
5,
6,
6,
8,
11,
10,
12,
10,
10,
9,
11,
14,
10,
18,
15,
13,
16,
15,
14,
15,
19,
16,
17,
19,
17,
15,
20,
15,
20,
22,
21,
21,
21,
21,
18,
23,
24,
24,
24,
27,
25,
24,
27,
20,
25,
27,
29,
27,
28,
30,
24,
28,
29,
29,
31,
35,
32,
35,
33,
33,
32,
33,
34,
32,
40,
34,
32,
34,
35,
33,
35,
34,
36,
36,
36,
36,
33,
37,
34,
38,
39,
39,
38,
40,
40,
38,
39,
37,
38,
41,
41,
40,
40,
41,
36,
40,
40,
40,
40,
41,
40,
41,
41,
41,
40,
40,
40,
41,
44,
41,
42,
40,
54,
40,
40,
40,
40,
41,
40,
41,
40,
40,
40,
39,
40,
38,
40,
40,
40,
40,
39,
39,
38,
35,
35,
40,
40,
39,
37,
39,
38,
37,
37,
38,
38,
38,
37,
36,
36,
36,
36,
36,
35,
35,
36,
36,
34,
34,
35,
33,
33,
34,
32,
33,
32,
31,
31,
31,
30,
29,
29,
30,
29,
28,
28,
27,
27,
27,
26,
26,
27,
27,
26,
26,
24,
24,
24,
23,
22,
24,
22,
21,
21,
20,
19,
20,
18,
19,
17,
18,
16,
17,
16,
14,
18,
15,
14,
14,
13,
14,
12,
11,
11,
10,
10,
9,
9,
9,
8,
7,
8,
7,
6,
5,
7,
5,
5,
4,
3,
3,
3,
2,
1,
0,
1,
0,
0,
-1,
-1,
-1,
-4,
-3,
-3,
-4,
-4,
-5,
-5,
-6,
-7,
-8,
-5,
-8,
-9,
-10,
-9,
-11,
-10,
-11,
-12,
-12,
-13,
-13,
-13,
-12,
-16,
-15,
-15,
-15,
-16,
-16,
-17,
-17,
-18,
-20,
-18,
-19,
-20,
-19,
-20,
-17,
-20,
-22,
-22,
-23,
-24,
-23,
-25,
-24,
-25,
-24,
-26,
-26,
-26,
-26,
-27,
-27,
-28,
-28,
-29,
-29,
-28,
-31,
-29,
-30,
-30,
-30,
-31,
-32,
-31,
-31,
-32,
-32,
-32,
-33,
-33,
-33,
-34,
-34,
-33,
-34,
-34,
-34,
-34,
-33,
-34,
-35,
-35,
-35,
-36,
-35,
-36,
-36,
-37,
-36,
-36,
-37,
-36,
-38,
-36,
-37,
-38,
-36,
-37,
-38,
-38,
-36,
-38,
-37,
-37,
-38,
-36,
-37,
-38,
-36,
-36,
-38,
-37,
-38,
-37,
-39,
-38,
-38,
-38,
-38,
-38,
-36,
-38,
-39,
-36,
-38,
-37,
-37,
-37,
-37,
-36,
-37,
-36,
-36,
-36,
-36,
-36,
-35,
-35,
-35,
-35,
-35,
-35,
-35,
-36,
-35,
-33,
-33,
-32,
-31,
-33,
-33,
-32,
-32,
-31,
-31,
-31,
-30,
-30,
-29,
-29,
-29,
-30,
-29,
-28,
-28,
-28,
-28,
-28,
-27,
-25,
-26,
-25,
-24,
-25,
-24,
-23,
-24,
-23,
-23,
-22,
-22,
-22,
-21,
-21,
-20,
-20,
-19,
-20,
-19,
-18,
-18,
-17,
-18,
-16,
-16,
-16,
-15,
-15,
-14,
-15,
-14,
-12,
-12,
-13,
-11,
-11,
-11,
-9,
-10,
-10,
-8,
-8,
-8,
-7,
-7,
-6,
-6,
-5,
-5,
-3,
-4,
-3,
-3,
-3,
-3,
-1,
-2,
0,
1,
1,
2,
2,
3,
2,
3,
5,
4,
5,
6,
7,
6,
7,
7,
9,
9,
9,
9,
10,
10,
10,
13,
12,
12,
14,
14,
14,
16,
16,
16,
16,
17,
17,
16,
18,
16,
18,
19,
20,
19,
21,
20,
22,
22,
22,
23,
23,
24,
24,
24,
24,
24,
26,
26,
26,
27,
28,
26,
28,
28,
29,
30,
30,
29,
31,
30,
32,
30,
31,
31,
32,
32,
33,
33,
34,
34,
34,
34,
34,
34,
35,
36,
35,
36,
37,
35,
37,
37,
36,
37,
38,
37,
39,
37,
39,
38,
39,
39,
35,
40,
39,
40,
40,
40,
40,
41,
40,
40,
42,
41,
40,
40,
40,
41,
40,
43,
40,
40,
40,
41,
41,
40,
40,
41,
41,
40,
41,
41,
41,
40,
40,
40,
40,
41,
40,
40,
40,
40,
37,
40,
40,
40,
40,
39,
39,
40,
39,
39,
39,
38,
38,
38,
37,
36,
37,
36,
36,
36,
36,
35,
36,
34,
32,
34,
35,
36,
33,
35,
34,
34,
33,
34,
33,
32,
33,
32,
32,
32,
30,
30,
31,
29,
29,
30,
27,
28,
28,
26,
27,
26,
26,
25,
25,
25,
24,
25,
23,
23,
23,
22,
22,
21,
21,
22,
20,
18,
20,
18,
19,
18,
18,
18,
17,
16,
16,
15,
15,
15,
14,
13,
12,
12,
12,
10,
11,
10,
9,
9,
8,
8,
8,
7,
7,
6,
6,
4,
3,
3,
3,
2,
2,
1,
1,
1,
0,
1,
0,
-1,
-1,
-1,
-2,
-3,
-3,
-4,
-5,
-4,
-6,
-6,
-6,
-6,
-8,
-8,
-8,
-9,
-10,
-10,
-10,
-10,
-12,
-11,
-11,
-12,
-13,
-12,
-14,
-15,
-14,
-15,
-16,
-15,
-17,
-17,
-17,
-19,
-19,
-18,
-21,
-20,
-19,
-14,
-22,
-22,
-22,
-23,
-22,
-23,
-25,
-24,
-24,
-24,
-24,
-25,
-26,
-26,
-27,
-26,
-28,
-28,
-28,
-27,
-28,
-28,
-30,
-29,
-30,
-31,
-30,
-31,
-31,
-31,
-31,
-32,
-31,
-33,
-33,
-34,
-33,
-34,
-36,
-33,
-34,
-35,
-35,
-36,
-35,
-36,
-36,
-34,
-36,
-36,
-36,
-36,
-37,
-36,
-36,
-36,
-36,
-36,
-37,
-35,
-37,
-40,
-37,
-39,
-38,
-36,
-37,
-36,
-39,
-38,
-38,
-38,
-38,
-39,
-38,
-38,
-38,
-38,
-37,
-38,
-38,
-38,
-37,
-38,
-37,
-37,
-38,
-37,
-37,
-37,
-37,
-37,
-37,
-36,
-36,
-36,
-36,
-36,
-36,
-36,
-36,
-35,
-36,
-34,
-36,
-35,
-34,
-37,
-34,
-34,
-32,
-34,
-33,
-34,
-34,
-32,
-32,
-33,
-32,
-32,
-31,
-31,
-31,
-31,
-31,
-29,
-29,
-28,
-28,
-29,
-27,
-28,
-28,
-27,
-27,
-26,
-26,
-25,
-25,
-24,
-24,
-24,
-23,
-24,
-21,
-21,
-22,
-20,
-20,
-22,
-20,
-22,
-20,
-20,
-19,
-18,
-17,
-16,
-18,
-15,
-17,
-16,
-14,
-15,
-16,
-14,
-13,
-12,
-12,
-13,
-11,
-11,
-10,
-10,
-8,
-8,
-6,
-8,
-8,
-6,
-7,
-4,
-5,
-5,
-4,
-4,
-4,
-3,
-4,
-3,
-1,
0,
0,
0,
1,
0,
1,
3,
2,
4,
5,
4,
4,
5,
6,
5,
6,
7,
8,
8,
9,
9,
10,
9,
10,
12,
12,
11,
13,
13,
13,
15,
14,
15,
15,
16,
17,
17,
18,
18,
18,
19,
19,
20,
20,
22,
21,
22,
23,
22,
23,
22,
23,
24,
24,
23,
25,
27,
25,
28,
28,
27,
28,
28,
32,
30,
29,
29,
30,
30,
31,
31,
32,
32,
32,
33,
32,
33,
33,
33,
34,
33,
34,
36,
36,
36,
36,
36,
36,
36,
36,
38,
37,
38,
37,
37,
38,
38,
38,
37,
39,
39,
40,
39,
38,
40,
39,
40,
39,
40,
39,
40,
40,
40,
40,
40,
40,
40,
40,
40,
41,
41,
41,
41,
44,
41,
41,
42,
41,
40,
41,
40,
42,
40,
40,
41,
40,
41,
40,
41,
40,
42,
40,
40,
40,
40,
39,
40,
40,
36,
41,
38,
39,
38,
38,
38,
38,
39,
36,
39,
37,
38,
37,
37,
36,
37,
36,
36,
36,
36,
31,
35,
33,
35,
32,
33,
34,
32,
32,
32,
32,
31,
31,
30,
29,
29,
29,
29,
28,
28,
29,
27,
27,
27,
26,
26,
25,
26,
25,
24,
24,
23,
24,
23,
20,
22,
20,
21,
20,
19,
20,
20,
19,
19,
18,
16,
18,
17,
16,
16,
16,
15,
15,
14,
13,
13,
12,
12,
10,
12,
9,
9,
9,
8,
4,
6,
6,
5,
6,
5,
5,
4,
4,
3,
4,
0,
3,
2,
1,
1,
1,
-1,
-1,
-2,
-2,
-2,
-3,
-4,
-4,
-4,
-6,
-6,
-6,
-8,
-6,
-8,
-7,
-9,
-11,
-9,
-10,
-12,
-12,
-12,
-13,
-13,
-13,
-15,
-13,
-15,
-16,
-15,
-17,
-16,
-16,
-16,
-17,
-18,
-18,
-19,
-20,
-18,
-22,
-20,
-20,
-21,
-22,
-21,
-23,
-24,
-23,
-24,
-24,
-24,
-24,
-24,
-26,
-25,
-27,
-26,
-27,
-26,
-28,
-28,
-29,
-29,
-29,
-31,
-32,
-31,
-29,
-31,
-31,
-30,
-32,
-32,
-32,
-32,
-32,
-32,
-32,
-32,
-32,
-34,
-34,
-34,
-35,
-34,
-34,
-34,
-33,
-36,
-35,
-35,
-36,
-36,
-36,
-35,
-37,
-38,
-36,
-36,
-36,
-38,
-37,
-38,
-38,
-37,
-37,
-38,
-36,
-38,
-38,
-38,
-38,
-38,
-37,
-37,
-38,
-37,
-38,
-38,
-38,
-37,
-37,
-36,
-38,
-39,
-39,
-38,
-37,
-37,
-36,
-37,
-36,
-36,
-37,
-36,
-36,
-36,
-36,
-35,
-36,
-35,
-35,
-34,
-35,
-36,
-34,
-36,
-36,
-33,
-34,
-35,
-33,
-34,
-35,
-32,
-32,
-33,
-32,
-32,
-32,
-31,
-31,
-31,
-31,
-29,
-30,
-29,
-29,
-29,
-29,
-29,
-31,
-28,
-28,
-27,
-26,
-26,
-27,
-25,
-25,
-25,
-24,
-24,
-24,
-24,
-23,
-23,
-23,
-23,
-23,
-22,
-22,
-20,
-20,
-22,
-19,
-20,
-18,
-18,
-18,
-17,
-16,
-16,
-15,
-14,
-14,
-14,
-14,
-12,
-13,
-11,
-12,
-10,
-9,
-10,
-10,
-9,
-8,
-8,
-8,
-7,
-7,
-6,
-4,
-5,
-5,
-4,
-4,
-2,
-2,
-2,
-1,
-1,
0,
0,
-1,
1,
1,
2,
3,
4,
4,
4,
5,
5,
5,
6,
8,
8,
8,
8,
8,
9,
9,
10,
9,
11,
12,
12,
13,
14,
12,
16,
15,
14,
16,
15,
16,
17,
16,
17,
18,
17,
19,
19,
21,
20,
