ALL0002/A0002CH2.CSV

Memory Length,4000,
Trigger Level,4.000E-01,
Source,CH2,
Vertical Units,V,
Vertical Scale,2.000E-01,
Vertical Position,8.000E-03,
Horizontal Units,s,
Horizontal Scale,5.000E-04,
Horizontal Position,0.000E+00,
Horizontal Mode,Main,
Sampling Period,2.000E-06,
Firmware, V1.14,
Waveform Data,
45,
45,
45,
44,
45,
46,
45,
46,
46,
46,
47,
47,
48,
48,
47,
48,
49,
49,
49,
50,
50,
50,
50,
50,
51,
50,
52,
51,
51,
52,
51,
53,
53,
52,
53,
54,
53,
53,
53,
53,
55,
53,
54,
56,
55,
55,
55,
55,
55,
55,
56,
56,
56,
57,
57,
58,
57,
57,
57,
58,
58,
58,
58,
58,
59,
58,
58,
59,
61,
58,
59,
60,
58,
60,
59,
59,
61,
60,
59,
60,
60,
61,
60,
60,
61,
61,
61,
62,
62,
62,
62,
61,
63,
61,
61,
61,
62,
62,
62,
62,
62,
62,
62,
62,
62,
62,
63,
62,
62,
62,
63,
63,
62,
62,
63,
64,
63,
62,
63,
62,
63,
63,
64,
63,
63,
63,
63,
63,
63,
62,
63,
63,
63,
63,
63,
63,
63,
63,
63,
63,
62,
62,
62,
62,
63,
61,
62,
62,
63,
61,
62,
62,
62,
61,
61,
62,
61,
62,
62,
60,
62,
62,
61,
62,
61,
61,
61,
61,
60,
61,
60,
60,
59,
59,
60,
61,
60,
60,
59,
59,
59,
58,
59,
59,
60,
59,
59,
58,
58,
59,
57,
57,
57,
58,
57,
57,
57,
57,
57,
58,
57,
57,
55,
55,
55,
54,
55,
56,
55,
55,
55,
54,
54,
54,
52,
53,
53,
53,
53,
53,
52,
52,
51,
52,
52,
51,
51,
51,
50,
51,
50,
50,
50,
50,
49,
48,
49,
49,
49,
48,
47,
47,
47,
47,
45,
46,
46,
45,
45,
45,
45,
45,
45,
49,
46,
44,
44,
43,
42,
43,
43,
41,
42,
41,
41,
43,
41,
39,
40,
39,
38,
40,
37,
39,
38,
37,
37,
37,
36,
37,
36,
35,
35,
35,
35,
34,
34,
34,
33,
33,
32,
32,
32,
32,
33,
31,
30,
30,
32,
32,
29,
30,
29,
28,
29,
28,
27,
27,
26,
26,
26,
25,
25,
25,
25,
23,
24,
23,
22,
22,
21,
22,
21,
21,
21,
22,
20,
19,
20,
18,
17,
17,
17,
17,
18,
17,
16,
16,
16,
14,
14,
13,
14,
12,
13,
13,
12,
13,
11,
11,
12,
10,
9,
9,
8,
10,
9,
7,
8,
9,
8,
7,
7,
6,
6,
5,
4,
4,
4,
3,
3,
1,
3,
3,
1,
1,
1,
-1,
0,
-1,
-2,
-2,
-2,
-1,
-1,
-2,
-2,
-3,
-4,
-3,
-5,
-5,
-5,
-6,
-7,
-6,
-6,
-6,
-5,
-8,
-8,
-8,
-10,
-9,
-10,
-11,
-11,
-11,
-11,
-11,
-11,
-12,
-13,
-14,
-15,
-15,
-15,
-15,
-15,
-15,
-15,
-15,
-16,
-18,
-17,
-18,
-19,
-19,
-20,
-19,
-19,
-20,
-19,
-19,
-22,
-21,
-22,
-22,
-23,
-23,
-24,
-23,
-25,
-25,
-25,
-26,
-25,
-27,
-27,
-28,
-27,
-28,
-27,
-28,
-28,
-29,
-29,
-27,
-30,
-31,
-29,
-31,
-30,
-31,
-31,
-32,
-33,
-34,
-34,
-34,
-34,
-34,
-35,
-35,
-34,
-35,
-35,
-35,
-37,
-37,
-37,
-38,
-38,
-38,
-39,
-38,
-39,
-40,
-39,
-40,
-42,
-41,
-41,
-41,
-41,
-42,
-41,
-42,
-43,
-42,
-43,
-43,
-45,
-45,
-45,
-45,
-44,
-45,
-45,
-44,
-46,
-47,
-45,
-47,
-47,
-46,
-48,
-48,
-51,
-49,
-49,
-49,
-50,
-49,
-49,
-50,
-49,
-48,
-50,
-50,
-50,
-51,
-51,
-51,
-52,
-51,
-51,
-51,
-51,
-53,
-53,
-53,
-54,
-54,
-55,
-54,
-55,
-54,
-53,
-53,
-53,
-55,
-56,
-55,
-56,
-54,
-55,
-57,
-56,
-55,
-56,
-55,
-55,
-56,
-56,
-58,
-57,
-57,
-57,
-58,
-58,
-58,
-58,
-57,
-58,
-57,
-58,
-59,
-59,
-61,
-59,
-58,
-59,
-59,
-59,
-58,
-59,
-59,
-60,
-60,
-60,
-61,
-60,
-61,
-60,
-60,
-59,
-60,
-60,
-60,
-62,
-62,
-61,
-61,
-59,
-61,
-61,
-61,
-60,
-61,
-62,
-61,
-62,
-61,
-61,
-62,
-62,
-62,
-61,
-62,
-60,
-61,
-61,
-61,
-62,
-61,
-61,
-60,
-62,
-62,
-62,
-61,
-62,
-62,
-61,
-61,
-62,
-61,
-62,
-61,
-59,
-61,
-63,
-62,
-62,
-63,
-61,
-61,
-60,
-61,
-61,
-61,
-59,
-61,
-60,
-61,
-61,
-61,
-60,
-61,
-66,
-59,
-60,
-59,
-59,
-60,
-60,
-60,
-60,
-59,
-58,
-59,
-59,
-59,
-58,
-59,
-59,
-58,
-59,
-59,
-58,
-59,
-59,
-57,
-58,
-57,
-57,
-57,
-57,
-57,
-58,
-56,
-57,
-57,
-55,
-56,
-55,
-55,
-55,
-55,
-54,
-55,
-55,
-55,
-54,
-54,
-54,
-54,
-53,
-53,
-53,
-52,
-52,
-52,
-53,
-53,
-55,
-52,
-51,
-51,
-51,
-51,
-50,
-50,
-51,
-50,
-50,
-49,
-50,
-49,
-50,
-49,
-48,
-48,
-47,
-47,
-47,
-47,
-47,
-48,
-46,
-49,
-47,
-45,
-47,
-45,
-44,
-44,
-44,
-43,
-44,
-43,
-42,
-43,
-43,
-43,
-42,
-42,
-42,
-41,
-40,
-46,
-39,
-41,
-39,
-39,
-39,
-39,
-39,
-38,
-38,
-37,
-37,
-36,
-36,
-37,
-35,
-36,
-36,
-35,
-35,
-35,
-33,
-33,
-34,
-33,
-33,
-32,
-34,
-32,
-31,
-31,
-31,
-31,
-31,
-29,
-30,
-28,
-29,
-27,
-29,
-27,
-27,
-29,
-27,
-25,
-25,
-25,
-25,
-25,
-25,
-26,
-23,
-24,
-23,
-24,
-22,
-22,
-21,
-22,
-21,
-20,
-20,
-19,
-20,
-18,
-19,
-18,
-18,
-17,
-17,
-16,
-17,
-17,
-14,
-15,
-15,
-14,
-14,
-13,
-13,
-14,
-11,
-12,
-12,
-11,
-11,
-11,
-11,
-10,
-9,
-8,
-9,
-10,
-7,
-7,
-9,
-7,
-6,
-7,
-5,
-5,
-7,
-3,
-3,
-4,
-3,
-3,
-3,
-2,
-2,
-2,
1,
0,
0,
0,
-1,
-1,
1,
-1,
2,
3,
5,
5,
5,
4,
4,
5,
5,
6,
6,
5,
6,
7,
8,
7,
8,
8,
9,
9,
10,
10,
10,
12,
11,
13,
13,
13,
13,
13,
13,
15,
14,
15,
15,
15,
17,
17,
16,
17,
17,
17,
18,
21,
20,
19,
21,
21,
21,
22,
21,
21,
22,
22,
22,
22,
24,
24,
25,
25,
25,
25,
25,
26,
26,
26,
27,
27,
27,
29,
28,
29,
29,
29,
29,
30,
30,
31,
31,
32,
32,
32,
33,
34,
34,
33,
36,
34,
35,
36,
36,
36,
37,
35,
37,
37,
37,
37,
37,
38,
39,
39,
39,
40,
37,
39,
41,
41,
41,
42,
41,
42,
42,
43,
41,
45,
43,
42,
45,
43,
45,
47,
46,
46,
46,
46,
45,
46,
46,
46,
47,
47,
48,
48,
48,
49,
49,
49,
47,
49,
48,
49,
49,
50,
51,
50,
51,
52,
52,
52,
50,
51,
52,
52,
53,
53,
53,
53,
53,
54,
54,
54,
54,
52,
54,
55,
55,
57,
56,
56,
56,
56,
55,
57,
56,
56,
58,
57,
58,
58,
57,
60,
58,
57,
59,
58,
57,
60,
59,
59,
61,
59,
58,
61,
59,
60,
59,
61,
61,
60,
61,
61,
61,
61,
63,
61,
61,
61,
61,
61,
59,
61,
62,
61,
62,
62,
61,
62,
61,
61,
62,
62,
63,
63,
63,
62,
62,
65,
62,
62,
62,
62,
62,
61,
63,
62,
63,
62,
62,
63,
62,
63,
62,
61,
62,
65,
62,
64,
63,
63,
64,
63,
61,
63,
63,
62,
63,
62,
62,
63,
63,
63,
63,
62,
65,
63,
63,
61,
62,
62,
60,
61,
63,
62,
61,
62,
61,
61,
62,
61,
61,
61,
60,
61,
62,
62,
62,
62,
61,
61,
61,
60,
60,
60,
59,
61,
60,
60,
60,
58,
60,
60,
59,
59,
59,
58,
58,
59,
58,
58,
57,
59,
58,
58,
57,
57,
57,
57,
57,
57,
57,
57,
55,
56,
56,
57,
55,
55,
53,
55,
54,
54,
54,
54,
54,
55,
53,
51,
54,
52,
51,
53,
52,
51,
53,
48,
52,
51,
50,
51,
50,
50,
50,
50,
49,
49,
48,
49,
48,
48,
48,
47,
47,
47,
47,
45,
46,
47,
46,
45,
46,
46,
45,
45,
44,
43,
43,
44,
42,
43,
42,
41,
41,
42,
41,
42,
40,
41,
40,
41,
41,
39,
39,
38,
37,
37,
38,
37,
38,
37,
36,
36,
35,
35,
34,
33,
33,
33,
33,
33,
33,
33,
33,
33,
31,
31,
31,
30,
30,
29,
29,
29,
29,
29,
29,
27,
28,
26,
26,
26,
25,
26,
26,
25,
26,
24,
23,
24,
23,
22,
22,
22,
21,
21,
20,
21,
21,
19,
19,
18,
19,
18,
18,
18,
17,
17,
17,
16,
15,
15,
14,
15,
14,
14,
13,
10,
11,
13,
11,
11,
11,
10,
10,
10,
9,
10,
10,
7,
8,
7,
6,
7,
6,
5,
6,
7,
6,
5,
4,
3,
3,
3,
1,
2,
1,
1,
2,
1,
-1,
0,
0,
-2,
-2,
-3,
-3,
0,
1,
-3,
-3,
-4,
-4,
-4,
-5,
-6,
-5,
-6,
-6,
-7,
-7,
-7,
-8,
-8,
-9,
-9,
-10,
-7,
-11,
-11,
-11,
-11,
-12,
-12,
-14,
-14,
-14,
-14,
-14,
-15,
-15,
-15,
-16,
-17,
-17,
-17,
-17,
-15,
-18,
-19,
-19,
-19,
-19,
-19,
-20,
-20,
-22,
-22,
-23,
-23,
-23,
-24,
-23,
-24,
-24,
-23,
-24,
-24,
-23,
-27,
-27,
-27,
-29,
-28,
-29,
-28,
-27,
-28,
-30,
-29,
-30,
-31,
-31,
-31,
-31,
-32,
-32,
-33,
-32,
-33,
-32,
-34,
-34,
-34,
-35,
-36,
-35,
-38,
-35,
-35,
-36,
-36,
-37,
-37,
-37,
-38,
-38,
-39,
-39,
-39,
-39,
-40,
-39,
-39,
-40,
-40,
-42,
-41,
-42,
-42,
-43,
-43,
-42,
-43,
-44,
-43,
-43,
-45,
-45,
-45,
-45,
-45,
-46,
-46,
-47,
-46,
-47,
-46,
-47,
-47,
-48,
-48,
-47,
-51,
-49,
-48,
-49,
-49,
-49,
-49,
-50,
-50,
-51,
-51,
-51,
-51,
-51,
-51,
-52,
-51,
-53,
-52,
-52,
-53,
-52,
-53,
-54,
-53,
-53,
-54,
-54,
-55,
-55,
-54,
-55,
-56,
-55,
-55,
-55,
-56,
-56,
-55,
-56,
-56,
-57,
-56,
-55,
-56,
-56,
-55,
-57,
-57,
-59,
-57,
-59,
-58,
-58,
-58,
-59,
-59,
-59,
-59,
-59,
-59,
-59,
-59,
-60,
-59,
-60,
-60,
-60,
-60,
-60,
-60,
-59,
-59,
-60,
-61,
-60,
-59,
-60,
-62,
-60,
-61,
-60,
-61,
-61,
-61,
-60,
-61,
-60,
-61,
-60,
-61,
-62,
-62,
-61,
-61,
-61,
-61,
-62,
-62,
-61,
-61,
-61,
-61,
-62,
-61,
-62,
-63,
-61,
-63,
-61,
-62,
-61,
-62,
-61,
-62,
-62,
-63,
-61,
-61,
-60,
-61,
-62,
-61,
-61,
-62,
-61,
-61,
-62,
-61,
-61,
-61,
-59,
-58,
-60,
-61,
-61,
-60,
-60,
-63,
-60,
-59,
-60,
-59,
-59,
-59,
-59,
-60,
-59,
-59,
-59,
-59,
-59,
-58,
-58,
-57,
-59,
-59,
-58,
-59,
-58,
-57,
-58,
-57,
-57,
-56,
-57,
-57,
-56,
-58,
-57,
-56,
-56,
-55,
-56,
-56,
-55,
-55,
-55,
-55,
-56,
-54,
-55,
-54,
-53,
-55,
-53,
-53,
-53,
-54,
-53,
-51,
-54,
-53,
-52,
-52,
-51,
-51,
-51,
-51,
-51,
-52,
-51,
-51,
-51,
-50,
-50,
-50,
-50,
-49,
-49,
-49,
-48,
-49,
-47,
-46,
-47,
-47,
-46,
-47,
-46,
-47,
-45,
-45,
-46,
-46,
-45,
-45,
-44,
-43,
-44,
-44,
-43,
-43,
-42,
-43,
-42,
-42,
-42,
-40,
-41,
-40,
-41,
-37,
-39,
-39,
-39,
-39,
-39,
-37,
-37,
-38,
-37,
-37,
-36,
-37,
-37,
-34,
-36,
-35,
-35,
-33,
-34,
-33,
-33,
-34,
-33,
-33,
-33,
-32,
-31,
-31,
-30,
-30,
-30,
-29,
-30,
-30,
-29,
-29,
-30,
-27,
-28,
-27,
-27,
-27,
-27,
-26,
-25,
-25,
-24,
-24,
-24,
-24,
-23,
-23,
-23,
-23,
-22,
-22,
-21,
-21,
-19,
-20,
-19,
-19,
-18,
-18,
-17,
-17,
-18,
-17,
-17,
-15,
-15,
-15,
-14,
-14,
-15,
-13,
-13,
-13,
-12,
-10,
-12,
-11,
-12,
-10,
-10,
-11,
-10,
-9,
-9,
-9,
-8,
-7,
-7,
-6,
-6,
-5,
-5,
-4,
-4,
-4,
-3,
-4,
-3,
-3,
-2,
-2,
-2,
-2,
1,
-1,
-1,
0,
0,
0,
0,
1,
2,
2,
3,
3,
3,
5,
3,
5,
6,
6,
6,
7,
5,
7,
7,
9,
8,
9,
7,
10,
9,
10,
10,
11,
11,
12,
13,
13,
13,
13,
13,
13,
15,
15,
17,
15,
15,
16,
17,
16,
18,
17,
17,
18,
18,
21,
19,
21,
21,
21,
21,
22,
23,
22,
23,
23,
23,
23,
25,
25,
24,
25,
25,
26,
24,
27,
26,
28,
27,
29,
29,
31,
29,
32,
31,
29,
31,
31,
29,
31,
31,
30,
33,
33,
33,
35,
34,
31,
35,
33,
35,
35,
36,
35,
38,
36,
41,
37,
37,
38,
38,
37,
39,
37,
40,
40,
41,
41,
42,
41,
40,
41,
40,
43,
42,
42,
43,
45,
44,
47,
44,
45,
46,
46,
44,
46,
44,
43,
47,
47,
47,
47,
48,
48,
49,
47,
48,
49,
50,
49,
53,
49,
53,
51,
50,
51,
51,
49,
51,
51,
50,
54,
52,
53,
52,
53,
52,
54,
53,
53,
54,
54,
54,
55,
55,
55,
55,
55,
55,
55,
57,
56,
58,
56,
57,
57,
54,
55,
57,
55,
57,
58,
56,
57,
60,
59,
57,
59,
57,
59,
59,
59,
59,
61,
61,
63,
60,
60,
60,
62,
60,
61,
60,
62,
61,
62,
62,
61,
61,
59,
61,
60,
61,
61,
63,
61,
62,
63,
61,
63,
63,
62,
61,
63,
61,
65,
62,
62,
63,
61,
62,
63,
61,
63,
63,
63,
64,
63,
63,
62,
63,
60,
62,
63,
62,
63,
65,
63,
65,
62,
63,
63,
63,
64,
62,
64,
62,
64,
62,
63,
62,
63,
61,
65,
63,
61,
63,
62,
61,
63,
62,
59,
62,
61,
62,
61,
63,
61,
64,
62,
62,
61,
61,
61,
61,
60,
61,
62,
61,
60,
61,
61,
60,
61,
58,
59,
61,
61,
60,
61,
59,
60,
61,
59,
59,
59,
59,
58,
60,
58,
58,
59,
56,
56,
58,
55,
57,
58,
55,
57,
57,
57,
57,
58,
54,
56,
55,
55,
55,
57,
54,
58,
55,
54,
54,
54,
52,
53,
51,
51,
53,
52,
52,
50,
52,
51,
52,
50,
51,
51,
50,
50,
51,
50,
50,
50,
49,
49,
47,
48,
48,
49,
46,
47,
46,
46,
45,
46,
44,
45,
45,
45,
45,
45,
45,
44,
43,
42,
44,
42,
42,
42,
43,
39,
44,
41,
41,
41,
40,
40,
39,
36,
39,
39,
38,
39,
39,
38,
37,
38,
34,
37,
35,
35,
35,
36,
34,
37,
33,
33,
34,
32,
32,
31,
30,
31,
32,
31,
30,
30,
31,
29,
30,
26,
27,
28,
26,
27,
29,
26,
29,
26,
24,
25,
25,
24,
23,
22,
21,
23,
22,
21,
21,
22,
20,
21,
20,
19,
20,
18,
19,
19,
18,
19,
18,
18,
16,
16,
16,
15,
15,
13,
14,
13,
16,
13,
13,
10,
12,
10,
9,
10,
11,
10,
10,
10,
10,
9,
8,
8,
3,
8,
5,
7,
1,
5,
5,
4,
5,
4,
1,
3,
1,
1,
2,
1,
0,
2,
-1,
0,
1,
-1,
-2,
-1,
0,
-3,
-1,
-3,
-3,
-3,
-5,
-6,
-5,
-8,
-6,
-6,
-7,
-7,
-7,
-7,
-7,
-7,
-11,
-10,
-9,
-10,
-11,
-9,
-11,
-8,
-11,
-12,
-12,
-12,
-14,
-15,
-14,
-16,
-15,
-15,
-16,
-17,
-17,
-19,
-18,
-17,
-18,
-19,
-19,
-19,
-19,
-19,
-20,
-21,
-21,
-21,
-22,
-19,
-22,
-21,
-22,
-23,
-23,
-23,
-25,
-25,
-24,
-26,
-26,
-28,
-25,
-28,
-28,
-30,
-30,
-29,
-28,
-29,
-29,
-30,
-31,
-30,
-34,
-32,
-32,
-32,
-33,
-31,
-33,
-33,
-33,
-34,
-34,
-35,
-34,
-35,
-33,
-36,
-36,
-37,
-37,
-39,
-37,
-41,
-39,
-37,
-41,
-39,
-39,
-39,
-41,
-39,
-40,
-42,
-41,
-42,
-41,
-41,
-41,
-43,
-42,
-43,
-44,
-43,
-42,
-44,
-42,
-45,
-45,
-47,
-46,
-46,
-46,
-48,
-47,
-47,
-47,
-47,
-48,
-48,
-50,
-47,
-50,
-50,
-48,
-47,
-49,
-50,
-48,
-52,
-50,
-50,
-51,
-51,
-50,
-52,
-48,
-51,
-52,
-52,
-52,
-52,
-53,
-53,
-54,
-54,
-52,
-54,
-55,
-54,
-56,
-53,
-55,
-55,
-56,
-55,
-55,
-56,
-55,
-58,
-55,
-56,
-57,
-57,
-54,
-53,
-55,
-56,
-57,
-58,
-57,
-58,
-58,
-57,
-58,
-58,
-58,
-58,
-61,
-59,
-61,
-61,
-60,
-59,
-59,
-56,
-58,
-59,
-59,
-63,
-59,
-60,
-61,
-61,
-59,
-61,
-59,
-59,
-61,
-59,
-61,
-60,
-61,
-60,
-61,
-61,
-61,
-61,
-63,
-61,
-63,
-59,
-61,
-62,
-62,
-61,
-61,
-60,
-61,
-65,
-62,
-61,
-62,
-62,
-59,
-59,
-59,
-61,
-62,
-61,
-62,
-62,
-63,
-61,
-65,
-61,
-61,
-61,
-63,
-61,
-63,
-62,
-61,
-62,
-62,
-60,
-60,
-61,
-60,
-63,
-61,
-61,
-61,
-61,
-59,
-61,
-57,
-59,
-61,
-61,
-61,
-61,
-60,
-59,
-61,
-60,
-59,
-59,
-60,
-58,
-62,
-59,
-60,
-60,
-59,
-58,
-58,
-59,
-58,
-61,
-58,
-59,
-58,
-55,
-56,
-57,
-55,
-57,
-57,
-55,
-57,
-58,
-57,
-57,
-57,
-55,
-55,
-55,
-55,
-55,
-57,
-53,
-56,
-55,
-54,
-54,
-56,
-53,
-53,
-52,
-52,
-52,
-52,
-53,
-52,
-53,
-52,
-53,
-50,
-51,
-51,
-51,
-51,
-52,
-51,
-50,
-49,
-50,
-49,
-49,
-48,
-50,
-49,
-48,
-48,
-48,
-48,
-46,
-47,
-43,
-47,
-45,
-45,
-45,
-47,
-43,
-47,
-46,
-44,
-42,
-44,
-43,
-43,
-43,
-43,
-44,
-42,
-43,
-41,
-42,
-39,
-42,
-38,
-41,
-39,
-40,
-41,
-40,
-39,
-40,
-39,
-37,
-35,
-37,
-36,
-35,
-37,
-35,
-37,
-35,
-36,
-34,
-35,
-33,
-33,
-34,
-31,
-33,
-31,
-33,
-30,
-32,
-31,
-32,
-30,
-29,
-30,
-30,
-29,
-31,
-27,
-27,
-28,
-26,
-27,
-27,
-28,
-25,
-29,
-25,
-25,
-24,
-24,
-22,
-23,
-24,
-22,
-22,
-21,
-21,
-20,
-23,
-17,
-19,
-19,
-17,
-18,
-19,
-19,
-20,
-18,
-15,
-18,
-15,
-16,
-15,
-16,
-13,
-15,
-14,
-13,
-14,
-12,
-12,
-14,
-12,
-11,
-11,
-11,
-10,
-8,
-10,
-6,
-7,
-9,
-7,
-8,
-7,
-7,
-7,
-7,
-4,
-5,
-4,
-5,
-3,
-4,
-2,
-2,
-3,
-2,
-2,
-1,
-1,
0,
-3,
0,
0,
1,
1,
3,
1,
3,
4,
2,
6,
2,
6,
3,
8,
5,
6,
7,
7,
6,
7,
7,
8,
9,
9,
10,
9,
11,
9,
10,
9,
10,
12,
12,
14,
17,
14,
13,
15,
14,
15,
15,
17,
16,
19,
17,
17,
18,
18,
18,
17,
19,
18,
20,
20,
21,
20,
22,
18,
22,
23,
22,
24,
25,
25,
25,
26,
23,
25,
25,
25,
29,
29,
28,
30,
29,
30,
29,
29,
30,
29,
31,
29,
31,
32,
33,
30,
32,
30,
32,
34,
33,
34,
34,
35,
35,
36,
33,
37,
36,
37,
40,
40,
39,
39,
39,
39,
38,
38,
41,
37,
41,
40,
41,
41,
41,
41,
42,
40,
41,
43,
41,
43,
45,
48,
43,
45,
43,
45,
46,
46,
46,
47,
47,
47,
48,
48,
49,
47,
49,
48,
49,
49,
49,
49,
49,
49,
49,
47,
50,
50,
48,
50,
52,
52,
50,
53,
49,
52,
52,
52,
53,
55,
54,
57,
54,
54,
54,
54,
55,
57,
56,
55,
57,
56,
56,
56,
55,
54,
55,
57,
55,
57,
58,
57,
58,
59,
57,
58,
59,
56,
59,
60,
58,
61,
59,
59,
60,
59,
59,
60,
58,
59,
61,
60,
61,
60,
60,
61,
61,
60,
61,
61,
61,
60,
64,
61,
63,
62,
61,
61,
61,
62,
62,
62,
61,
62,
63,
62,
61,
63,
60,
62,
60,
61,
63,
63,
62,
64,
63,
61,
64,
62,
62,
62,
64,
62,
66,
63,
63,
62,
63,
61,
62,
61,
61,
63,
65,
62,
62,
63,
62,
64,
59,
62,
62,
63,
61,
65,
63,
65,
64,
62,
62,
63,
62,
61,
61,
61,
63,
62,
62,
62,
62,
61,
62,
58,
61,
62,
61,
61,
61,
61,
65,
62,
61,
61,
60,
60,
59,
60,
60,
61,
60,
60,
60,
60,
58,
59,
56,
58,
58,
59,
59,
60,
58,
58,
58,
57,
57,
57,
58,
56,
61,
57,
57,
57,
56,
55,
53,
53,
54,
56,
54,
55,
53,
55,
54,
55,
52,
54,
53,
53,
53,
53,
53,
52,
53,
52,
52,
51,
53,
53,
54,
50,
51,
50,
49,
48,
49,
47,
48,
50,
48,
51,
49,
49,
47,
48,
47,
46,
46,
45,
46,
46,
45,
46,
46,
44,
44,
43,
45,
43,
45,
43,
42,
43,
42,
39,
41,
45,
40,
41,
39,
40,
37,
38,
39,
39,
36,
37,
39,
37,
37,
38,
36,
37,
36,
35,
34,
38,
35,
33,
34,
33,
33,
32,
32,
29,
31,
28,
31,
31,
30,
29,
31,
29,
29,
29,
26,
32,
29,
27,
27,
29,
26,
28,
26,
25,
25,
24,
23,
23,
22,
23,
22,
22,
22,
21,
21,
20,
21,
19,
18,
19,
20,
18,
18,
18,
16,
17,
18,
16,
17,
17,
14,
17,
16,
14,
13,
17,
11,
12,
9,
11,
11,
10,
11,
11,
9,
9,
9,
8,
7,
8,
7,
6,
7,
7,
7,
1,
3,
4,
4,
3,
3,
1,
2,
2,
1,
1,
0,
1,
-1,
0,
-2,
-1,
-1,
-2,
-2,
-3,
-2,
-2,
-3,
-3,
-4,
-4,
-5,
-5,
-6,
-7,
-6,
-7,
-7,
-8,
-9,
-10,
-10,
-10,
-9,
-11,
-10,
-11,
-10,
-11,
-11,
-12,
-12,
-13,
-13,
-14,
-15,
-15,
-15,
-15,
-15,
-16,
-17,
-16,
-18,
-19,
-18,
-19,
-18,
-19,
-20,
-19,
-19,
-20,
-21,
-22,
-22,
-20,
-23,
-23,
-24,
-24,
-24,
-24,
-24,
-25,
-26,
-26,
-26,
-27,
-27,
-27,
-28,
-27,
-27,
-30,
-29,
-30,
-30,
-31,
-31,
-32,
-31,
-32,
-32,
-32,
-33,
-33,
-33,
-33,
-33,
-34,
-35,
-35,
-35,
-35,
-35,
-35,
-36,
-35,
-38,
-37,
-37,
-38,
-38,
-39,
-39,
-39,
-39,
-39,
-40,
-41,
-41,
-41,
-42,
-41,
-42,
-42,
-42,
-43,
-43,
-43,
-44,
-43,
-44,
-45,
-45,
-44,
-45,
-46,
-46,
-46,
-46,
-46,
-47,
-46,
-47,
-47,
-47,
-47,
-48,
-49,
-48,
-49,
-49,
-49,
-50,
-50,
-50,
-50,
-51,
-51,
-52,
-51,
-51,
-52,
-51,
-52,
-52,
-52,
-52,
-52,
-53,
-53,
-53,
-53,
-52,
-54,
-55,
-54,
-55,
-55,
-55,
-55,
-55,
-55,
-55,
-55,
-56,
-56,
-56,
-56,
-57,
-56,
-56,
-58,
-56,
-57,
-58,
-56,
-57,
-58,
-57,
-59,
-57,
-59,
-58,
-58,
-58,
-58,
-58,
-59,
-59,
-59,
-59,
-60,
-59,
-61,
-60,
-60,
-60,
-59,
-61,
-61,
-59,
-60,
-60,
-60,
-61,
-61,
-60,
-60,
-61,
-60,
-65,
-61,
-61,
-61,
-61,
-61,
-61,
-62,
-61,
-61,
-61,
-61,
-61,
-61,
-59,
-62,
-62,
-62,
-62,
-62,
-64,
-63,
-61,
-62,
-61,
-62,
-61,
-62,
-62,
-62,
-62,
-61,
-62,
-61,
-62,
-62,
-62,
-61,
-62,
-61,
-60,
-62,
-62,
-62,
-62,
-61,
-61,
-61,
-61,
-61,
-61,
-61,
-61,
-61,
-61,
-60,
-60,
-61,
-59,
-60,
-64,
-61,
-59,
-59,
-58,
-59,
-59,
-59,
-59,
-58,
-59,
-59,
-59,
-59,
-59,
-58,
-58,
-58,
-58,
-58,
-56,
-57,
-58,
-57,
-57,
-58,
-57,
-57,
-56,
-56,
-57,
-56,
-55,
-55,
-55,
-55,
-55,
-54,
-55,
-55,
-53,
-53,
-53,
-54,
-54,
-54,
-53,
-53,
-54,
-52,
-51,
-52,
-52,
-51,
-52,
-52,
-51,
-51,
-51,
-50,
-51,
-50,
-51,
-50,
-49,
-49,
-50,
-49,
-49,
-48,
-48,
-48,
-46,
-47,
-47,
-46,
-47,
-47,
-46,
-46,
-46,
-45,
-45,
-45,
-43,
-44,
-43,
-43,
-44,
-43,
-44,
-43,
-43,
-42,
-41,
-41,
-42,
-40,
-40,
-40,
-40,
-39,
-39,
-39,
-39,
-38,
-37,
-38,
-37,
-37,
-37,
-37,
-36,
-36,
-36,
-37,
-35,
-34,
-34,
-34,
-34,
-33,
-33,
-33,
-33,
-32,
-32,
-31,
-31,
-31,
-30,
-30,
-30,
-29,
-29,
-29,
-28,
-29,
-28,
-27,
-27,
-26,
-27,
-25,
-24,
-25,
-25,
-24,
-24,
-23,
-23,
-23,
-23,
-22,
-23,
-21,
-22,
-21,
-21,
-21,
-19,
-19,
-19,
-18,
-18,
-18,
-17,
-17,
-17,
-16,
-16,
-15,
-15,
-14,
-13,
-15,
-13,
-13,
-13,
-12,
-12,
-12,
-11,
-11,
-11,
-10,
-10,
-10,
-9,
-9,
-7,
-7,
-7,
-7,
-6,
-7,
-6,
-5,
-6,
-4,
-3,
-5,
-3,
-4,
-2,
-2,
-2,
-1,
-3,
0,
0,
-1,
1,
1,
0,
1,
2,
2,
3,
3,
3,
3,
3,
4,
5,
5,
5,
6,
5,
6,
7,
7,
7,
8,
9,
9,
9,
10,
11,
10,
12,
11,
11,
12,
12,
13,
14,
14,
14,
15,
14,
16,
16,
15,
17,
17,
17,
17,
17,
18,
18,
19,
20,
18,
20,
21,
21,
22,
21,
22,
22,
23,
23,
25,
24,
25,
24,
25,
26,
26,
26,
27,
27,
28,
28,
28,
28,
29,
29,
30,
30,
30,
31,
30,
31,
32,
32,
32,
33,
32,
33,
33,
33,
34,
35,
34,
35,
35,
36,
35,
35,
37,
37,
37,
38,
38,
39,
39,
39,
39,
39,
40,
40,
40,
41,
41,
41,
41,
41,
42,
42,
42,
42,
43,
43,
43,
